Modeling Project
…
After examining these tables and summaries, I think I can conclude that the tumor stage variable is missing completely at random. In which case I will be assigning the most common tumor stage of 2 to these missing values. This stage also appears to be closest to the values of these NA values.

Looking at the other variables with high amounts of missing values, I notice that they have exactly 529 missing. This makes me think there is some trend to find.

# A tibble: 529 × 19
   patient_id cohort age_at_diagnosis cancer_type_detailed            
   <chr>      <fct>             <dbl> <chr>                           
 1 MB-0025    1                  76.2 Breast Invasive Ductal Carcinoma
 2 MB-0326    1                  51.4 Invasive Breast Carcinoma       
 3 MB-0329    1                  76.8 Breast Invasive Ductal Carcinoma
 4 MB-0547    1                  66.7 Invasive Breast Carcinoma       
 5 MB-6206    1                  65.0 Breast Invasive Ductal Carcinoma
 6 MTS-T0035  1                  55.6 Breast Invasive Ductal Carcinoma
 7 MTS-T0058  9                  48   Breast Invasive Ductal Carcinoma
 8 MTS-T0059  9                  82   Breast Invasive Ductal Carcinoma
 9 MTS-T0060  9                  61   Invasive Breast Carcinoma       
10 MTS-T0061  9                  60   Breast Invasive Ductal Carcinoma
# ℹ 519 more rows
# ℹ 15 more variables: pam50_claudin_low_subtype <chr>, er_status <chr>,
#   hormone_therapy <chr>, inferred_menopausal_state <chr>,
#   lymph_nodes_examined_positive <dbl>, mutation_count <dbl>,
#   nottingham_prognostic_index <dbl>, npi_cat <chr>, radio_therapy <chr>,
#   relapse_free_status_months <dbl>, relapse <dbl>, chemotherapy <chr>,
#   x3_gene_classifier_subtype <chr>, tumor_size <dbl>, tumor_stage <fct>
…
# A tibble: 7 × 5
  term                                 estimate std.error statistic   p.value
  <chr>                                   <dbl>     <dbl>     <dbl>     <dbl>
1 pam50_claudin_low_subtypeclaudin-low -0.538       0.160   -3.37   0.000751 
2 pam50_claudin_low_subtypeHer2         0.138       0.139    0.993  0.321    
3 pam50_claudin_low_subtypeLumA        -0.532       0.123   -4.33   0.0000146
4 pam50_claudin_low_subtypeLumB         0.00724     0.123    0.0588 0.953    
5 pam50_claudin_low_subtypeMissing     -0.177       0.130   -1.36   0.174    
6 pam50_claudin_low_subtypeNC          -0.0716      0.587   -0.122  0.903    
7 pam50_claudin_low_subtypeNormal      -0.139       0.162   -0.857  0.392    

I like the looks of the tumor size variable and the lymph nodes examined positive variables. Now I will use the change in estimate method to select my covariates further. I think it is safe to remove the mutation variable due to very high p-value. Now I will use the change in estimate method to select from here.

# A tibble: 21 × 5
   term                                 estimate std.error statistic p.value
   <chr>                                   <dbl>     <dbl>     <dbl>   <dbl>
 1 pam50_claudin_low_subtypeclaudin-low -0.375     0.169      -2.22   0.0263
 2 pam50_claudin_low_subtypeHer2         0.210     0.146       1.44   0.149 
 3 pam50_claudin_low_subtypeLumA        -0.254     0.138      -1.83   0.0668
 4 pam50_claudin_low_subtypeLumB         0.122     0.138       0.881  0.378 
 5 pam50_claudin_low_subtypeMissing     -0.272     0.186      -1.46   0.143 
 6 pam50_claudin_low_subtypeNC           0.440     0.592       0.743  0.458 
 7 pam50_claudin_low_subtypeNormal       0.119     0.173       0.686  0.493 
 8 age_at_diagnosis                      0.00522   0.00403     1.30   0.195 
 9 inferred_menopausal_statePost        -0.234     0.123      -1.90   0.0579
10 inferred_menopausal_statePre         NA         0          NA     NA     
# ℹ 11 more rows
…
